{
  "extends": "./tools/config/seed.tslint.json",
  "rules": {
    "import-destructuring-spacing": true,
    "no-trailing-whitespace": false,
    "no-use-before-declare": false,
    "max-line-length": [true, 250],
    "member-ordering": false,
    "no-empty": false
  }
}
